Question,Type,List
Give me all female Russian astronauts.,person,yes
Give me the birthdays of all actors of the television show Charmed.,date,yes
Who is the daughter of Ingrid Bergman married to?,person,no
Which river does the Brooklyn Bridge cross?,object,no
How many monarchical countries are there in Europe?,number,no
In which city did John F. Kennedy die?,place,no
Is the wife of president Obama called Michelle?,boolean,no
Which states of Germany are governed by the Social Democratic Party?,place,yes
Which U.S. states possess gold minerals?,place,yes
In which country does the Nile start?,place,no
Which countries have places with more than two caves?,place,yes
Is proinsulin a protein?,boolean,no
Which classis do tree frogs belong to?,object,no
How tall is Claudia Schiffer?,number,no
Who created Goofy?,person,no
Give me the capitals of all countries in Africa.,place,yes
Give me all cities in New Jersey with more than 100000 inhabitants.,place,yes
Which museum exhibits The Scream by Munch?,object,no
Is Egypts largest city also its capital?,boolean,no
How many employees does IBM have?,number,no
Which states border Illinois?,place,yes
In which country is the Limerick Lake?,place,no
Which television shows were created by Walt Disney?,object,yes
Which mountain is the highest after the Annapurna?,object,no
In which films directed by Garry Marshall was Julia Roberts starring?,object,yes
Which bridges are of the same type as the Manhattan Bridge?,object,yes
Was U.S. president Jackson involved in a war?,boolean,no
Which European countries have a constitutional monarchy?,place,yes
Which awards did WikiLeaks win?,object,yes
Which state of the USA has the highest population density?,place,yes
What is the currency of the Czech Republic?,object,no
Which countries in the European Union adopted the Euro?,place,yes
What is the area code of Berlin?,number,no
Which countries have more than two official languages?,place,yes
Who is the owner of Universal Studios?,person,no
Through which countries does the Yenisei river flow?,place,yes
When did Latvia join the EU?,date,no
Which monarchs of the United Kingdom were married to a German?,person,yes
When was the Battle of Gettysburg?,date,no
What is the highest mountain in Australia?,object,no
Give me all soccer clubs in Spain.,object,yes
What are the official languages of the Philippines?,object,yes
Who is the mayor of New York City?,person,no
Who designed the Brooklyn Bridge?,person,no
Which telecommunications organizations are located in Belgium?,object,yes
Is Frank Herbert still alive?,boolean,no
What is the highest place of Karakoram?,place,no
Give me the homepage of Forbes.,object,no
Give me all companies in the advertising industry.,object,yes
What did Bruce Carver die from?,object,no
Give me all school types.,object,yes
Which presidents were born in 1945?,person,yes
Give me all presidents of the United States.,person,yes
Who was the wife of U.S. president Lincoln?,person,no
Who developed the video game World of Warcraft?,person,no
What is the official website of Tom Cruise?,object,no
List all episodes of the first season of the HBO television series The Sopranos!,object,yes
Who produced the most films?,person,no
Give me all people with first name Jimmy.,person,yes
Is there a video game called Battle Chess?,boolean,no
Which mountains are higher than the Nanga Parbat?,object,yes
Who created Wikipedia?,person,no
Give me all actors starring in Last Action Hero.,person,yes
Which software has been developed by organizations founded in California?,object,yes
Which companies work in the aerospace industry as well as on nuclear reactor technology?,object,yes
Is Christian Bale starring in Batman Begins?,boolean,no
Give me the websites of companies with more than 500000 employees.,object,yes
Which actors were born in Germany?,person,yes
Which caves have more than 3 entrances?,object,yes
Give me all films produced by Hal Roach.,object,yes
Give me all video games published by Mean Hamster Software.,object,yes
Which languages are spoken in Estonia?,object,yes
Who owns Aldi?,person,no
Which capitals in Europe were host cities of the summer olympic games?,place,yes
Who has been the 5th president of the United States of America?,person,no
How many films did Hal Roach produce?,number,no
Which music albums contain the song Last Christmas?,object,yes
Give me all books written by Danielle Steel.,object,yes
"Which airports are located in California, USA?",object,yes
Give me all Canadian Grunge record labels.,object,yes
Which country has the most official languages?,place,no
In which programming language is GIMP written?,object,no
Who produced films starring Natalie Portman?,person,yes
Give me all movies with Tom Cruise.,object,yes
In which films did Julia Roberts as well as Richard Gere play?,object,yes
Give me all female German chancellors.,person,yes
Who wrote the book Les Piliers de la terre?,person,no
How many films did Leonardo DiCaprio star in?,number,no
Give me all soccer clubs in the Premier League.,object,yes
When was Capcom founded?,date,no
Which organizations were founded in 1950?,object,yes
What is the highest mountain?,object,no
Was Natalie Portman born in the United States?,boolean,no
Which budget did the first movie of Zdenek Sverak have?,number,no
How many big fires struck Paris during the Middle Ages?,number,no
Is Jens Friebe a vegan?,boolean,no
How often was Michael Jordan divorced?,number,no
What is the most beautiful painting?,object,yes
Give me all animal species that live in the Teutoburg Forest.,object,yes